text	fluency	grammar	semantics	bleu	meteor	ter	mr
the antwerp international airport is run by the operation organisation the flemish government.	2.0	2.6666666666666665	3.0	0.371	0.521285737861137	54.545	Antwerp_International_Airport | operatingOrganisation | Flemish_Government
the demonym for people living in the denmark is danes.	2.3333333333333335	2.3333333333333335	2.3333333333333335	0.236	0.413195821348109	104.348	Denmark | demonym | Danes
the united states air force was involved in battles at the 1986 united states bombing of libya.	2.8	3.0	3.0	0.631	0.455414835840254	46.667	United_States_Air_Force | battles | 1986_United_States_bombing_of_Libya
null	1.0	1.0	1.0	0	0	81.081	Adams_County,_Pennsylvania | has to its southeast | Carroll_County,_Maryland
artur rasizade, is one of the leaders, in the azerbaijan.	1.0	1.0	1.0	0.277	0.400996712750102	95.455	Azerbaijan | leader | Artur_Rasizade
null	1.0	1.0	1.0	0	0	95.122	Azerbaijan | leaderTitle | Prime_Minister_of_Azerbaijan
the reference number in the the national register of historic places for asher and mary isabelle richardson house is 8800253 9.	3.0	2.75	3.0	0.803	0.537976388272415	15	Asher_and_Mary_Isabelle_Richardson_House | ReferenceNumber in the National Register of Historic Places | "88002539"
one of the significant buildings designed by julia morgan is the los angeles herald-examiner.	3.0	3.0	2.75	0.203	0.360229859767155	68.75	Julia_Morgan | significantBuilding | Los_Angeles_Herald-Examiner
the city of new york city is part of the state of new netherland.	3.0	3.0	2.3333333333333335	0.381	0.51080073952768	85.714	New_York_City | isPartOf | New_Netherland
english language is one of the languages that is spoken in aenir.	2.0	2.6666666666666665	3.0	0.253	0.263736263736264	166.667	Aenir | language | English_language
the american journal of mathematics comes under the academic discipline of mathematics.	2.6666666666666665	2.6666666666666665	3.0	0.531	0.534060414521205	41.379	American_Journal_of_Mathematics | academicDiscipline | Mathematics
asian americans are part of one of the ethnic groups in the united states.	2.3333333333333335	2.3333333333333335	2.6666666666666665	0.562	0.569007527298708	48.387	United_States | ethnicGroup | Asian_Americans
the league that a. d. isidro metapán play in is salvadoran primera división.	2.0	1.6666666666666667	3.0	0.269	0.537573792190844	65.854	A.D._Isidro_Metapán | league | Salvadoran_Primera_División
umbria is the regions where gubbio comes from.	2.3333333333333335	2.3333333333333335	2.6666666666666665	0.28	0.308612377902575	93.333	Gubbio | region | Umbria
st. vincent – st. mary high school is located within the country of the united states.	2.6666666666666665	3.0	3.0	0.272	0.534496736059265	75.862	St._Vincent–St._Mary_High_School | country | United_States
the 1 decembrie 1918 universitys is located in the state of alba.	1.8	1.6	2.0	0.583	0.955555555555556	23.077	1_Decembrie_1918_University | state | Alba
null	1.0	1.0	1.0	0	0	90	Kerala | has to its northwest | Mahé,_India
bucharest is the capital city of the romania.	2.0	2.5	3.0	0.366	0.471754201265878	42.857	Romania | capital | Bucharest
buzz aldrin worked for nasa beginning in 1963,.	3.0	3.0	2.6666666666666665	0.294	0.352354565833999	66.667	Buzz_Aldrin | was selected by NASA | 1963
null	1.0	1.0	1.0	0	0	100	California | gemstone | Benitoite
elliot see died on 1966-02- 28.	3.0	2.3333333333333335	3.0	0.308	0.372579092259508	53.571	Elliot_See | deathDate | "1966-02-28"
null	1.0	1.0	1.0	0	0	95.238	Ben_Urich | fullName | "Benjamin Urich"
the fictional comic superhero bibbo bibbowski was created by jerry ordway.	3.0	3.0	2.3333333333333335	0.48	0.557674732401352	69.231	Bibbo_Bibbowski | creator | Jerry_Ordway
karl kesel had a nationality that was of the americans.	2.3333333333333335	2.6666666666666665	3.0	0.198	0.383803197135935	100	Karl_Kesel | nationality | Americans
the city of antioch, california is part of the state of contra costa county, california.	2.6666666666666665	2.6666666666666665	3.0	0.26	0.463545445204617	100	Antioch,_California | isPartOf | Contra_Costa_County,_California
orange county, california is located within the country of the united states.	2.6666666666666665	2.6666666666666665	3.0	0.228	0.516960849873365	72.727	Orange_County,_California | country | United_States
the united states house of representatives is located in the city of united states capitol.	2.0	2.3333333333333335	2.3333333333333335	0.648	0.550768301818817	32.609	United_States_House_of_Representatives | location | United_States_Capitol
shumai is one of the ingredients that can be used in a variation of batagor.	3.0	2.6666666666666665	2.0	0.192	0.463458847886346	137.5	Batagor | dishVariation | Shumai
jalisco is the regions where bionico comes from.	1.5	1.0	2.5	0.247	0.410047736266148	75	Bionico | region | Jalisco
null	1.0	1.0	1.0	0	0	87.5	Indonesia | language | Indonesian_language
null	1.0	1.0	1.0	0	0	94.444	11th_Mississippi_Infantry_Monument | established | 2000<br>11th_Mississippi_Infantry_Monument | category | Contributing_property
null	1.0	1.0	1.0	0	0	97.674	14th_New_Jersey_Volunteer_Infantry_Monument | district | Monocacy_National_Battlefield<br>Monocacy_National_Battlefield | nearestCity | Frederick,_Maryland
null	1.0	1.0	1.0	0	0	100	Baku_Turkish_Martyrs'_Memorial | dedicatedTo | "Ottoman Army soldiers killed in the Battle of Baku"<br>Baku_Turkish_Martyrs'_Memorial | location | Azerbaijan
null	1.0	1.0	1.0	0	0	93.617	Arlington,_Texas | elevationAboveTheSeaLevel | 184.0<br>Arlington,_Texas | areaTotal | 258.2 (square kilometres)
atlantic city, new jersey is a food found in united states, of which the capital city is washington, d. c..	2.3333333333333335	2.3333333333333335	1.0	0.248	0.414079794794081	60	Atlantic_City,_New_Jersey | country | United_States<br>United_States | capital | Washington,_D.C.
null	1.0	1.0	1.0	0	0	91.071	United_States | capital | Washington,_D.C.<br>Albany,_Oregon | isPartOf | United_States
ayam penyet is a food found in indonesia, and it comes from the region of malaysia.	2.6666666666666665	2.6666666666666665	2.0	0.196	0.343642502393049	103.125	Ayam_penyet | region | Malaysia<br>Ayam_penyet | country | Indonesia
sponge cake is an ingredient used in the preparation of baked alaska which can be found in france.	2.3333333333333335	3.0	3.0	0.266	0.328268165708626	109.756	Baked_Alaska | country | France<br>Baked_Alaska | ingredient | Sponge_cake
the main ingredients of the singapore and indonesian dish known as beef kway teow are squeezed or kway teow, beef tender loin, gula melaka, sliced, dried black beans, garlic, dark soy sauce, lengkuas, oyster sauce, soya sauce, chilli and sesame oil chicken served with sambal.	2.3333333333333335	2.6666666666666665	1.6666666666666667	0.159	0.550122645778569	68	Beef_kway_teow | mainIngredients | "Kway teow, beef tender loin, gula Melaka, sliced, dried black beans, garlic, dark soy sauce, lengkuas, oyster sauce, soya sauce, chilli and sesame oil"<br>Beef_kway_teow | country | "Singapore and Indonesia"
the address, allama iqbal international airport is located in pakistan, the country that has anwar zaheer jamali as one of its leaders.	2.3333333333333335	2.6666666666666665	2.6666666666666665	0.331	0.443119885029947	72	Allama_Iqbal_International_Airport | location | Pakistan<br>Pakistan | leaderName | Anwar_Zaheer_Jamali
the length of the runway at angola international airport, which serves the city of luanda, is 3800.0.	3.0	3.0	3.0	0.257	0.585058801636547	63.462	Angola_International_Airport | runwayLength | 3800.0<br>Angola_International_Airport | cityServed | Luanda
the atlantic city international airport is located in egg harbor township, new jersey, which is found in united states.	2.3333333333333335	2.6666666666666665	3.0	0.456	0.592954175346462	57.692	Atlantic_City_International_Airport | location | Egg_Harbor_Township,_New_Jersey<br>Egg_Harbor_Township,_New_Jersey | country | United_States
the ground of a. c. chievo verona is located in verona, italy, the team have 39371 members.	2.0	1.6666666666666667	2.6666666666666665	0.21	0.427053887084431	83.333	A.C._Chievo_Verona | ground | "Verona, Italy"<br>A.C._Chievo_Verona | numberOfMembers | 39371
null	1.0	1.0	1.0	0	0	73.333	A.C._Chievo_Verona | manager | Rolando_Maran<br>Rolando_Maran | placeOfBirth | Italy
null	1.0	1.0	1.0	0	0	94.118	AZAL_PFK | ground | AZAL_Arena<br>AZAL_PFK | location | "Shuvalan, Baku, Azerbaijan"
eric flint was the author of 1634 : the bavarian crisis, which was preceded by his novel the grantville gazettes.	3.0	2.6666666666666665	3.0	0.401	0.567385648302607	35.593	1634:_The_Bavarian_Crisis | author | Eric_Flint<br>1634:_The_Bavarian_Crisis | precededBy | The_Grantville_Gazettes
a fortress of grey ice has a total of 672 pages and the isbn number 0-7653- 0633-6.	2.3333333333333335	2.3333333333333335	3.0	0.376	0.533983182796897	60	A_Fortress_of_Grey_Ice | numberOfPages | "672"<br>A_Fortress_of_Grey_Ice | ISBN_number | "0-7653-0633-6"
a long long way has a total of 292 pages and the isbn number 0-670-0338 0-4.	2.6666666666666665	2.6666666666666665	2.3333333333333335	0.413	0.49066464424125	57.143	A_Long_Long_Way | numberOfPages | "292"<br>A_Long_Long_Way | ISBN_number | "0-670-03380-4"
null	1.0	1.0	1.0	0	0	93.75	1_Decembrie_1918_University | nickname | Uab<br>1_Decembrie_1918_University | state | Alba
null	1.0	1.0	1.0	0	0	86.667	Acharya_Institute_of_Technology | affiliation | Visvesvaraya_Technological_University<br>Visvesvaraya_Technological_University | city | Belgaum
null	1.0	1.0	1.0	0	0	88.889	Kerala | leaderName | Kochi<br>AWH_Engineering_College | state | Kerala
graeme garden starred in bananaman, which was broadcasted by stv.	2.0	2.3333333333333335	2.6666666666666665	0.254	0.891666666666667	44.118	Bananaman | starring | Graeme_Garden<br>Bananaman | broadcastedBy | "STV"
null	1.0	1.0	1.0	0	0	96	Baymax | series | Big_Hero_6_(film)<br>Baymax | creator | Steven_T._Seagle
bibbo bibbowskis full name is actually bo bibbowski, the character was created by marv wolfman.	2.6666666666666665	2.3333333333333335	2.3333333333333335	0.182	0.410919898612078	74.074	Bibbo_Bibbowski | creator | Marv_Wolfman<br>Bibbo_Bibbowski | fullName | "Bo Bibbowski"
null	1.0	1.0	1.0	0	0	90.323	Buzz_Aldrin | birthPlace | Glen_Ridge,_New_Jersey<br>Glen_Ridge,_New_Jersey | isPartOf | Essex_County,_New_Jersey
null	1.0	1.0	1.0	0	0	85.714	William_Anders | birthPlace | British_Hong_Kong<br>William_Anders | was a crew member of | Apollo_8
null	1.0	1.0	1.0	0	0	95.455	William_Anders | status | "Retired"<br>William_Anders | almaMater | "AFIT, M.S. 1962"
there are 50 floors at 108 st georges terrace, a building that was completed in 1988.	3.0	3.0	3.0	0.273	0.458146413396909	73.333	108_St_Georges_Terrace | floorCount | 50<br>108_St_Georges_Terrace | completionDate | 1988
null	1.0	1.0	1.0	0	0	97.959	AC_Hotel_Bella_Sky_Copenhagen | tenant | Marriott_International<br>AC_Hotel_Bella_Sky_Copenhagen | location | Copenhagen
3arena is located in dublin, which is a part of the republic of ireland.	3.0	3.0	3.0	0.484	0.57761192843843	42.857	Dublin | isPartOf | Republic_of_Ireland<br>3Arena | location | Dublin
null	1.0	1.0	1.0	0	0	95	Elliot_See | almaMater | University_of_Texas_at_Austin<br>Elliot_See | birthPlace | Dallas<br>Elliot_See | nationality | United_States
null	1.0	1.0	1.0	0	0	94.737	Elliot_See | almaMater | University_of_Texas_at_Austin<br>St._Louis | leaderName | Francis_G._Slay<br>Elliot_See | deathPlace | St._Louis
null	1.0	1.0	1.0	0	0	93.023	Elliot_See | deathPlace | St._Louis<br>St._Louis | isPartOf | Kingdom_of_France<br>Elliot_See | deathDate | "1966-02-28"
null	1.0	1.0	1.0	0	0	100	A_Severed_Wasp | language | English_language<br>English_language | spokenIn | Great_Britain<br>A_Severed_Wasp | country | United_States
above the veil by garth nix was produced in hardcover and is 248 pages long.	3.0	3.0	3.0	0.31	0.395877651411926	43.636	Above_the_Veil | numberOfPages | "248"<br>Above_the_Veil | author | Garth_Nix<br>Above_the_Veil | mediaType | Hardcover
null	1.0	1.0	1.0	0	0.0358208955223881	76.271	Aenir | author | Garth_Nix<br>Aenir | language | English_language<br>Aenir | followedBy | Above_the_Veil
null	1.0	1.0	1.0	0	0	91.463	A.C._Lumezzane | fullname | "Associazione Calcio Lumezzane SpA"<br>A.C._Lumezzane | league | "Lega Pro/A"<br>A.C._Lumezzane | numberOfMembers | 4150
null	1.0	1.0	1.0	0	0	100	AFC_Ajax_(amateurs) | ground | Amsterdam<br>Amsterdam | leader | Eberhard_van_der_Laan<br>Amsterdam | part | Amsterdam-Centrum
john van den brom is manager of az alkmaar and is affiliated with jong ajax. he is currently at the i ̇ stanbulspor a. ş. club.	2.0	3.0	3.0	0.279	0.418097107194141	75	AZ_Alkmaar | manager | John_van_den_Brom<br>John_van_den_Brom | club | Jong_Ajax<br>John_van_den_Brom | club | İstanbulspor_A.Ş.
null	1.0	1.0	1.0	0	0	93.548	Alan_B._Miller_Hall | buildingStartDate | "30 March 2007"<br>Mason_School_of_Business | country | United_States<br>Alan_B._Miller_Hall | currentTenants | Mason_School_of_Business
san franciscon born julia morgan designed the asilomar conference grounds and other significant buildings including riverside art museum.	2.6666666666666665	2.3333333333333335	3.0	0.408	0.420906141137116	47.826	Asilomar_Conference_Grounds | architect | Julia_Morgan<br>Julia_Morgan | birthPlace | San_Francisco<br>Julia_Morgan | significantBuilding | Riverside_Art_Museum
asser levy public baths is located in new york city, built in 1904, and was added to the national register of historic places on 1980-04- 23.	3.0	2.6666666666666665	2.6666666666666665	0.47	0.556304260169684	37.895	Asser_Levy_Public_Baths | location | New_York_City<br>Asser_Levy_Public_Baths | yearOfConstruction | 1904<br>Asser_Levy_Public_Baths | added to the National Register of Historic Places | "1980-04-23"
null	1.0	1.0	1.0	0	0	91.892	Albuquerque,_New_Mexico | populationDensity | 1142.3 (inhabitants per square kilometre)<br>Albuquerque,_New_Mexico | leaderTitle | New_Mexico_Senate<br>Albuquerque,_New_Mexico | areaTotal | 490.9 (square kilometres)
null	1.0	1.0	1.0	0	0	89.552	New_Jersey | capital | Trenton,_New_Jersey<br>New_Jersey | country | United_States<br>Atlantic_City,_New_Jersey | isPartOf | New_Jersey
english language is the language spoken in the united states, where angola, indiana comes from. it is also the country where the asian americans are an ethnic group.	2.5	2.5	3.0	0.326	0.417057758592097	71.053	United_States | language | English_language<br>Angola,_Indiana | country | United_States<br>United_States | ethnicGroup | Asian_Americans
null	1.0	1.0	1.0	0	0	87.64	Adirondack_Regional_Airport | cityServed | Lake_Placid,_New_York<br>Adirondack_Regional_Airport | runwayLength | 2003.0<br>Adirondack_Regional_Airport | cityServed | Saranac_Lake,_New_York
al asad airbase is operated by the united states air force and fought in the invasion of grenada. the mcdonnell douglas f-15 eagle is an aircraft fighter in the united states air force.	2.6666666666666665	2.3333333333333335	2.0	0.465	0.498616813527841	47.059	Al_Asad_Airbase | operatingOrganisation | United_States_Air_Force<br>United_States_Air_Force | battles | Invasion_of_Grenada<br>United_States_Air_Force | aircraftFighter | McDonnell_Douglas_F-15_Eagle
null	1.0	1.0	1.0	0	0	97.297	Andrews_County_Airport | location | Texas<br>Texas | capital | Austin,_Texas<br>Texas | language | English_language
null	1.0	1.0	1.0	0	0	96	Adams_County,_Pennsylvania | has to its southeast | Carroll_County,_Maryland<br>11th_Mississippi_Infantry_Monument | municipality | Gettysburg,_Pennsylvania<br>11th_Mississippi_Infantry_Monument | location | Adams_County,_Pennsylvania
null	1.0	1.0	1.0	0	0	100	Azerbaijan | capital | Baku<br>Baku_Turkish_Martyrs'_Memorial | location | Azerbaijan<br>Baku_Turkish_Martyrs'_Memorial | nativeName | "Türk Şehitleri Anıtı"
null	1.0	1.0	1.0	0	0	97.5	Azerbaijan | leader | Artur_Rasizade<br>Baku_Turkish_Martyrs'_Memorial | location | Azerbaijan<br>Azerbaijan | legislature | National_Assembly_(Azerbaijan)
barny cakes originates from france, where claude bartolone and manuel valls are leaders.	3.0	3.0	3.0	0.424	0.453101480819154	42.857	Barny_Cakes | country | France<br>France | leaderName | Claude_Bartolone<br>France | leaderName | Manuel_Valls
null	1.0	1.0	1.0	0	0	82.759	Binignit | ingredient | Sago<br>Binignit | course | Dessert<br>Dessert | dishVariation | Cookie
null	1.0	1.0	1.0	0	0	93.443	Tomato | family | Solanaceae<br>Amatriciana_sauce | ingredient | Tomato<br>Tomato | order | Solanales
null	1.0	1.0	1.0	0	0	92.647	Kerala | leaderName | Kochi<br>AWH_Engineering_College | state | Kerala<br>Kerala | has to its northwest | Mahé,_India
null	1.0	1.0	1.0	0	0	93.103	School of Business and Social Sciences at the Aarhus University | affiliation | European_University_Association<br>European_University_Association | headquarters | Brussels<br>School of Business and Social Sciences at the Aarhus University | established | 1928
null	1.0	1.0	1.0	0	0	90.476	School of Business and Social Sciences at the Aarhus University | city | Aarhus<br>School of Business and Social Sciences at the Aarhus University | country | Denmark<br>School of Business and Social Sciences at the Aarhus University | established | 1928
null	1.0	1.0	1.0	0	0	91.837	Asterix_(comicsCharacter) | creator | René_Goscinny<br>René_Goscinny | nationality | French_people<br>Asterix_(comicsCharacter) | creator | Albert_Uderzo
null	1.0	1.0	1.0	0	0	100	Blockbuster_(comicsCharacter) | creator | Gardner_Fox<br>Blockbuster_(comicsCharacter) | alternativeName | "Mark Desmond"<br>Blockbuster_(comicsCharacter) | creator | Carmine_Infantino
null	1.0	1.0	1.0	0	0	86.364	Bolt_(comicsCharacter) | creator | Ernie_Colón<br>Bolt_(comicsCharacter) | alternativeName | "Larry Bolatinsky"<br>Bolt_(comicsCharacter) | creator | Gary_Cohn_(comics)
null	1.0	1.0	1.0	0	0	90.909	Adare_Manor | location | Adare<br>County_Limerick | isPartOf | Munster<br>Adare_Manor | location | County_Limerick<br>County_Limerick | governmentType | Limerick_City_and_County_Council
null	1.0	1.0	1.0	0	0	89.362	Akita_Museum_of_Art | country | Japan<br>Akita_Museum_of_Art | location | Akita,_Akita<br>Akita,_Akita | isPartOf | Akita_Prefecture<br>Japan | ethnicGroup | Brazilians_in_Japan
null	1.0	1.0	1.0	0	0	95.238	United_States | language | English_language<br>United_States | leaderTitle | President_of_the_United_States<br>United_States | leaderName | Joe_Biden<br>250_Delaware_Avenue | location | United_States
null	1.0	1.0	1.0	0	0	89.362	Azerbaijan | capital | Baku<br>Azerbaijan | leaderTitle | Prime_Minister_of_Azerbaijan<br>Baku_Turkish_Martyrs'_Memorial | location | Azerbaijan<br>Azerbaijan | leaderName | Artur_Rasizade
null	1.0	1.0	1.0	0	0	96	Monocacy_National_Battlefield | location | Frederick_County,_Maryland<br>14th_New_Jersey_Volunteer_Infantry_Monument | established | "1907-07-11"<br>14th_New_Jersey_Volunteer_Infantry_Monument | district | Monocacy_National_Battlefield<br>Monocacy_National_Battlefield | nearestCity | Frederick,_Maryland
null	1.0	1.0	1.0	0	0	85.185	Turkey | leaderName | Ahmet_Davutoğlu<br>Turkey | capital | Ankara<br>Atatürk_Monument_(İzmir) | material | "Bronze"<br>Atatürk_Monument_(İzmir) | location | Turkey
null	1.0	1.0	1.0	0	0	94.231	Anderson,_Indiana | populationDensity | 523.9 (inhabitants per square kilometre)<br>Anderson,_Indiana | areaTotal | 107.43 (square kilometres)<br>Anderson,_Indiana | elevationAboveTheSeaLevel | 268.0<br>Anderson,_Indiana | isPartOf | "Adams, Fall Creek, Lafayette, Richland, Union"
null	1.0	1.0	1.0	0	0	92.308	Angola,_Indiana | isPartOf | Pleasant_Township,_Steuben_County,_Indiana<br>Angola,_Indiana | country | United_States<br>Angola,_Indiana | isPartOf | Indiana<br>Angola,_Indiana | areaTotal | 16.55 (square kilometres)
null	1.0	1.0	1.0	0	0	94.737	United_States | ethnicGroup | Asian_Americans<br>Albuquerque,_New_Mexico | leaderTitle | New_Mexico_Senate<br>New_Mexico_Senate | leader | John_Sánchez<br>Albuquerque,_New_Mexico | country | United_States
the manager of az alkmaar is john van den brom, who happens to be a member of vitesse arnhem, and plays for both afc ajax and netherlands national football team.	3.0	3.0	3.0	0.174	0.415284601635647	67.059	AZ_Alkmaar | manager | John_van_den_Brom<br>John_van_den_Brom | club | Vitesse_Arnhem<br>John_van_den_Brom | club | AFC_Ajax<br>John_van_den_Brom | club | Netherlands_national_football_team
null	1.0	1.0	1.0	0	0	85.263	Agremiação_Sportiva_Arapiraquense | league | Campeonato_Brasileiro_Série_C<br>Campeonato_Brasileiro_Série_C | country | Brazil<br>Agremiação_Sportiva_Arapiraquense | ground | Estádio_Municipal_Coaracy_da_Mata_Fonseca<br>Estádio_Municipal_Coaracy_da_Mata_Fonseca | location | Arapiraca
peter stöger manages 1. fc köln. he also plays for fc admira wacker mödling and played for sk vorwärts steyr. while, also having once been at the club fk austria wien.	1.6666666666666667	1.6666666666666667	2.6666666666666665	0.144	0.400214472049232	84.375	Peter_Stöger | club | SK_Vorwärts_Steyr<br>Peter_Stöger | club | FC_Admira_Wacker_Mödling<br>1._FC_Köln | manager | Peter_Stöger<br>Peter_Stöger | club | FK_Austria_Wien
null	1.0	1.0	1.0	0	0	94.286	Atlantic_City_International_Airport | owner | South_Jersey_Transportation_Authority<br>South_Jersey_Transportation_Authority | leaderName | Stephen_Dilts<br>Atlantic_City_International_Airport | location | Egg_Harbor_Township,_New_Jersey<br>Egg_Harbor_Township,_New_Jersey | country | United_States
null	1.0	1.0	1.0	0	0	90.698	Iraq | language | Kurdish_languages<br>Iraq | leaderName | Fuad_Masum<br>Al-Taqaddum_Air_Base | cityServed | Fallujah<br>Fallujah | country | Iraq
null	1.0	1.0	1.0	0	0	96.552	Iraq | leaderName | Haider_al-Abadi<br>Iraq | language | Kurdish_languages<br>Al-Taqaddum_Air_Base | cityServed | Fallujah<br>Fallujah | country | Iraq
null	1.0	1.0	1.0	0	0	94.286	Bananaman | starring | Jill_Shilling<br>Bananaman | creator | Steve_Bright<br>Bananaman | firstAired | "1983-10-03"<br>Bananaman | broadcastedBy | "STV"
null	1.0	1.0	1.0	0	0	91.304	Big_Hero_6_(film) | starring | Ryan_Potter<br>Duncan_Rouleau | nationality | Americans<br>Baymax | creator | Duncan_Rouleau<br>Baymax | series | Big_Hero_6_(film)
null	1.0	1.0	1.0	0	0	95.455	Bolt_(comicsCharacter) | creator | Gary_Cohn_(comics)<br>Ernie_Colón | nationality | Puerto_Ricans<br>Bolt_(comicsCharacter) | creator | Ernie_Colón<br>Bolt_(comicsCharacter) | alternativeName | "Larry Bolatinsky"
null	1.0	1.0	1.0	0	0	95.192	A_Fortress_of_Grey_Ice | mediaType | Hardcover<br>A_Fortress_of_Grey_Ice | OCLC_number | 51969173<br>A_Fortress_of_Grey_Ice | author | J._V._Jones<br>A_Fortress_of_Grey_Ice | ISBN_number | "0-7653-0633-6"
null	1.0	1.0	1.0	0	0	90.566	A_Loyal_Character_Dancer | author | Qiu_Xiaolong<br>A_Loyal_Character_Dancer | OCLC_number | 49805501<br>A_Loyal_Character_Dancer | ISBN_number | "1-56947-301-3"<br>A_Loyal_Character_Dancer | mediaType | Hardcover
null	1.0	1.0	1.0	0	0	93.578	Alcatraz_Versus_the_Evil_Librarians | language | English_language<br>English_language | spokenIn | Great_Britain<br>Alcatraz_Versus_the_Evil_Librarians | country | United_States<br>United_States | ethnicGroup | African_Americans
null	1.0	1.0	1.0	0	0	100	Alan_Bean | nationality | United_States<br>Alan_Bean | birthPlace | Wheeler,_Texas<br>Alan_Bean | timeInSpace | "100305.0"(minutes)<br>Alan_Bean | was selected by NASA | 1963
null	1.0	1.0	1.0	0	0	100	Buzz_Aldrin | was a crew member of | Apollo_11<br>Buzz_Aldrin | birthName | "Edwin Eugene Aldrin Jr."<br>Buzz_Aldrin | awards | 20<br>Apollo_11 | operator | NASA
null	1.0	1.0	1.0	0	0	100	Distinguished_Service_Medal_(United_States_Navy) | higher | Department_of_Commerce_Gold_Medal<br>Alan_Shepard | deathPlace | California<br>Alan_Shepard | birthPlace | New_Hampshire<br>Alan_Shepard | awards | Distinguished_Service_Medal_(United_States_Navy)
null	1.0	1.0	1.0	0	0	92	AWH_Engineering_College | country | India<br>AWH_Engineering_College | established | 2001<br>AWH_Engineering_College | city | "Kuttikkattoor"<br>India | river | Ganges
null	1.0	1.0	1.0	0	0	90.476	Acharya_Institute_of_Technology | was given the 'Technical Campus' status by | All_India_Council_for_Technical_Education<br>All_India_Council_for_Technical_Education | location | Mumbai<br>Acharya_Institute_of_Technology | sportsOffered | Tennis<br>Tennis | sportsGoverningBody | International_Tennis_Federation
null	1.0	1.0	1.0	0	0	92.958	Kerala | leaderName | Kochi<br>AWH_Engineering_College | academicStaffSize | 250<br>AWH_Engineering_College | state | Kerala<br>AWH_Engineering_College | city | "Kuttikkattoor"
null	1.0	1.0	1.0	0	0	94.186	Bandeja_paisa | mainIngredients | "red beans, pork belly, white rice, ground meat, chicharon, fried egg, plantain (patacones), chorizo, arepa, hogao sauce, black pudding (morcilla), avocado and lemon"<br>Bandeja_paisa | region | Paisa_Region<br>Bandeja_paisa | country | Colombian_cuisine<br>Bandeja_paisa | ingredient | Hogao
null	1.0	1.0	1.0	0	0	77.778	Beef_kway_teow | region | Singapore<br>Beef_kway_teow | country | "Singapore and Indonesia"<br>Singapore | language | Standard_Chinese<br>Singapore | leaderName | Halimah_Yacob
null	1.0	1.0	1.0	0	0	84.444	Philippines | language | Philippine_English<br>Binignit | course | Dessert<br>Dessert | dishVariation | Sandesh_(confectionery)<br>Binignit | country | Philippines
null	1.0	1.0	1.0	0	0	85.714	English_language | spokenIn | Great_Britain<br>A_Loyal_Character_Dancer | publisher | Soho_Press<br>A_Loyal_Character_Dancer | country | United_States<br>United_States | ethnicGroup | Native_Americans_in_the_United_States<br>United_States | language | English_language
null	1.0	1.0	1.0	0	0	83.077	English_language | spokenIn | Great_Britain<br>United_States | language | English_language<br>United_States | capital | Washington,_D.C.<br>A_Severed_Wasp | country | United_States<br>United_States | ethnicGroup | Native_Americans_in_the_United_States
null	1.0	1.0	1.0	0	0	93.333	United_States | leaderName | Barack_Obama<br>United_States | demonym | Americans<br>United_States | capital | Washington,_D.C.<br>1634:_The_Ram_Rebellion | country | United_States<br>United_States | ethnicGroup | African_Americans
null	1.0	1.0	1.0	0	0	73.404	Amarillo,_Texas | isPartOf | Potter_County,_Texas<br>Potter_County,_Texas | state | Texas<br>Texas | country | United_States<br>United_States | capital | Washington,_D.C.<br>United_States | language | English_language
null	1.0	1.0	1.0	0	0	90.244	Auburn,_Washington | isPartOf | Pierce_County,_Washington<br>Auburn,_Washington | country | United_States<br>Auburn,_Washington | isPartOf | King_County,_Washington<br>Auburn,_Washington | populationDensity | 914.8 (inhabitants per square kilometre)<br>Auburn,_Washington | areaTotal | 77.41 (square kilometres)
null	1.0	1.0	1.0	0	0	96.226	United_States | language | English_language<br>Angola,_Indiana | isPartOf | Steuben_County,_Indiana<br>United_States | demonym | Americans<br>Angola,_Indiana | country | United_States<br>United_States | ethnicGroup | Asian_Americans
null	1.0	1.0	1.0	0	0	86.441	Azerbaijan | capital | Baku<br>Azerbaijan | leaderTitle | Prime_Minister_of_Azerbaijan<br>Baku_Turkish_Martyrs'_Memorial | dedicatedTo | "Ottoman Army soldiers killed in the Battle of Baku"<br>Baku_Turkish_Martyrs'_Memorial | location | Azerbaijan<br>Azerbaijan | leaderName | Artur_Rasizade
null	1.0	1.0	1.0	0	0	90	Azerbaijan | capital | Baku<br>Baku_Turkish_Martyrs'_Memorial | dedicatedTo | "Ottoman Army soldiers killed in the Battle of Baku"<br>Baku_Turkish_Martyrs'_Memorial | location | Azerbaijan<br>Azerbaijan | leaderName | Artur_Rasizade<br>Azerbaijan | legislature | National_Assembly_(Azerbaijan)
null	1.0	1.0	1.0	0	0	95.798	Turkey | leaderTitle | President_of_Turkey<br>Turkey | leader | Ahmet_Davutoğlu<br>Turkey | capital | Ankara<br>Turkey | largestCity | Istanbul<br>Atatürk_Monument_(İzmir) | location | Turkey
null	1.0	1.0	1.0	0	0	79.412	AWH_Engineering_College | established | 2001<br>AWH_Engineering_College | academicStaffSize | 250<br>AWH_Engineering_College | state | Kerala<br>Kerala | has to its northwest | Mahé,_India<br>AWH_Engineering_College | city | "Kuttikkattoor"
null	1.0	1.0	1.0	0	0	100	India | largestCity | Mumbai<br>AWH_Engineering_College | country | India<br>Kerala | leaderName | Kochi<br>AWH_Engineering_College | state | Kerala<br>India | river | Ganges
null	1.0	1.0	1.0	0	0	81.356	School of Business and Social Sciences at the Aarhus University | city | Aarhus<br>European_University_Association | headquarters | Brussels<br>Aarhus | has to its northeast | Mols<br>School of Business and Social Sciences at the Aarhus University | affiliation | European_University_Association<br>Aarhus | governmentType | Magistrate
null	1.0	1.0	1.0	0	0	97.5	Duncan_Rouleau | nationality | Americans<br>Baymax | creator | Duncan_Rouleau<br>Big_Hero_6_(film) | starring | Alan_Tudyk<br>Baymax | creator | Steven_T._Seagle<br>Baymax | series | Big_Hero_6_(film)
null	1.0	1.0	1.0	0	0	85.333	A.C._Lumezzane | manager | Michele_Marcolini<br>A.C._Lumezzane | ground | Italy<br>Italy | leader | Pietro_Grasso<br>Michele_Marcolini | club | F.C._Bari_1908<br>Michele_Marcolini | club | Vicenza_Calcio
null	1.0	1.0	1.0	0	0	95.89	AEK_Athens_F.C. | manager | Gus_Poyet<br>Gus_Poyet | club | Real_Zaragoza<br>Olympic_Stadium_(Athens) | location | Marousi<br>AEK_Athens_F.C. | ground | Olympic_Stadium_(Athens)<br>Gus_Poyet | club | Chelsea_F.C.
null	1.0	1.0	1.0	0	0	91.525	Italy | officialLanguage | Italian_language<br>Italy | demonym | Italians<br>Italy | capital | Rome<br>Italy | leader | Sergio_Mattarella<br>A.S._Gubbio_1910 | ground | Italy
null	1.0	1.0	1.0	0	0	88.462	Bhajji | country | India<br>Bhajji | region | Karnataka<br>Bhajji | mainIngredients | "Gram flour, vegetables"<br>Bhajji | alternativeName | "Bhaji, bajji"<br>Bhajji | ingredient | Gram_flour
the languages spoken in the philippines are philippine spanish and arabic. batchoy is eaten there and the ethnic groups are the zamboangans and the chinese filipino.	2.6666666666666665	3.0	2.6666666666666665	0.386	0.382084253465677	59.375	Philippines | language | Arabic<br>Philippines | ethnicGroup | Zamboangans<br>Philippines | language | Philippine_Spanish<br>Batchoy | country | Philippines<br>Philippines | ethnicGroup | Chinese_Filipino
null	1.0	1.0	1.0	0	0	88.525	Spain | leaderName | Felipe_VI_of_Spain<br>Ajoblanco | region | Andalusia<br>Andalusia | leaderName | Susana_Díaz<br>Ajoblanco | country | Spain<br>Spain | demonym | Spaniards
null	1.0	1.0	1.0	0	0	95.349	Alan_Shepard | was a crew member of | Apollo_14<br>Distinguished_Service_Medal_(United_States_Navy) | higher | Department_of_Commerce_Gold_Medal<br>Alan_Shepard | birthPlace | New_Hampshire<br>Apollo_14 | operator | NASA<br>Alan_Shepard | awards | Distinguished_Service_Medal_(United_States_Navy)
null	1.0	1.0	1.0	0	0	98.02	Buzz_Aldrin | birthPlace | Glen_Ridge,_New_Jersey<br>Buzz_Aldrin | was a crew member of | Apollo_11<br>Buzz_Aldrin | nationality | United_States<br>Buzz_Aldrin | occupation | Fighter_pilot<br>Apollo_11 | operator | NASA
null	1.0	1.0	1.0	0	0	100	Distinguished_Service_Medal_(United_States_Navy) | higher | Department_of_Commerce_Gold_Medal<br>Alan_Shepard | nationality | United_States<br>Alan_Shepard | deathPlace | California<br>Alan_Shepard | birthPlace | New_Hampshire<br>Alan_Shepard | awards | Distinguished_Service_Medal_(United_States_Navy)
null	1.0	1.0	1.0	0	0.00802675585284281	98.99	Al_Asad_Airbase | operatingOrganisation | United_States_Air_Force<br>United_States_Air_Force | battles | Invasion_of_Grenada<br>United_States_Air_Force | attackAircraft | Lockheed_AC-130<br>United_States_Air_Force | transportAircraft | Lockheed_C-130_Hercules<br>United_States_Air_Force | battles | Operation_Enduring_Freedom
null	1.0	1.0	1.0	0	0	87.097	Allama_Iqbal_International_Airport | location | Pakistan<br>Allama_Iqbal_International_Airport | runwayLength | 3310.0<br>Allama_Iqbal_International_Airport | operatingOrganisation | Pakistan_Civil_Aviation_Authority<br>Allama_Iqbal_International_Airport | cityServed | Lahore<br>Allama_Iqbal_International_Airport | runwayName | "18L/36R"
null	1.0	1.0	1.0	0	0	97.59	Athens_International_Airport | cityServed | Athens<br>Athens | country | Greece<br>Greece | leaderName | Alexis_Tsipras<br>Greece | language | Greek_language<br>Greece | leaderName | Prokopis_Pavlopoulos
null	1.0	1.0	1.0	0	0	90.476	200_Public_Square | location | Cleveland<br>200_Public_Square | completionDate | 1985<br>Cleveland | isPartOf | Cuyahoga_County,_Ohio<br>Cleveland | isPartOf | Ohio<br>Cleveland | country | United_States
null	1.0	1.0	1.0	0	0	87.356	AC_Hotel_Bella_Sky_Copenhagen | location | Denmark<br>Marriott_International | foundationPlace | Washington,_D.C.<br>Denmark | leaderName | Lars_Løkke_Rasmussen<br>AC_Hotel_Bella_Sky_Copenhagen | tenant | Marriott_International<br>Denmark | language | Greenlandic_language
null	1.0	1.0	1.0	0	0	86.538	Akita_Museum_of_Art | country | Japan<br>Akita_Museum_of_Art | floorCount | 3<br>Akita_Museum_of_Art | location | Akita,_Akita<br>Akita_Museum_of_Art | location | Akita_Prefecture<br>Akita_Museum_of_Art | address | "1-4-2 Nakadori"
the birth place of airey neave is knightsbridge, london.	3.0	3.0	3.0	0.248	0.415978469090027	84.211	Airey_Neave | birthPlace | "Knightsbridge, London"
null	1.0	1.0	1.0	0	0	94.737	Alvah_Sabin | party | Whig_Party_(United_States)
null	1.0	1.0	1.0	0	0	90.909	Juan_Perón | party | Labour_Party_(Argentina)
null	1.0	1.0	1.0	0	0	100	Acura_TLX | layout | AWD_(vehicle)
null	1.0	1.0	1.0	0	0	96	Alfa_Romeo_164 | relatedMeanOfTransportation | Lancia_Thema
null	1.0	1.0	1.0	0	0	91.667	United_States | ethnicGroup | Native_Americans_in_the_United_States
abel hernández is associated with the uruguay national football team, a football club.	2.3333333333333335	3.0	3.0	0.214	0.44075147527564	72.727	Abel_Hernández | club | Uruguay_national_football_team
basim qasim is the manager of the al-zawra'a sc.	3.0	3.0	3.0	0.526	0.583859452111802	58.333	Al-Zawra'a_SC | manager | Basim_Qasim
alessio romagnoli is affiliated with the youthclub a. s. roma	2.6666666666666665	2.6666666666666665	3.0	0.193	0.32995983862659	71.053	Alessio_Romagnoli | youthclub | A.S._Roma
null	1.0	1.0	1.0	0	0	94.737	Abradab | background | "solo_singer"
null	1.0	1.0	1.0	0	0	70	Aleksandra_Kovač | background | "solo_singer"
the demonym for people living in the united kingdom is british people.	2.6666666666666665	2.0	3.0	0.335	0.452963757755105	50	United_Kingdom | demonym | British_people
null	1.0	1.0	1.0	0	0	90.909	(29075)_1950_DA | discoverer | Carl_A._Wirtanen
the previous name of 1001 gaussia was the 1923 oaa 907 xc.	3.0	3.0	3.0	0.29	0.390434899344171	61.765	1001_Gaussia | formerName | "1923 OAA907 XC"
null	1.0	1.0	1.0	0	0	94.286	101_Helena | apoapsis | 441092000.0 (kilometres)
null	1.0	1.0	1.0	0	0	92.308	Aaron_S._Daggett | battles | Battle_of_Gettysburg<br>Aaron_S._Daggett | award | Purple_Heart
null	1.0	1.0	1.0	0	0	87.5	Abdulsalami_Abubakar | birthPlace | Minna<br>Abdulsalami_Abubakar | almaMater | Technical_Institute,_Kaduna
null	1.0	1.0	1.0	0	0	96.226	Airey_Neave | battles | Battle_of_France<br>Battle_of_France | commander | Hugo_Sperrle
null	1.0	1.0	1.0	0	0	92.857	Alaa_Abdul-Zahra | club | Al_Kharaitiyat_SC<br>Al_Kharaitiyat_SC | manager | Amar_Osim
null	1.0	1.0	1.0	0	0	95.745	Aleksander_Barkov,_Jr. | club | Florida_Panthers<br>Aleksander_Barkov,_Jr. | birthPlace | "Tampere, Finland"
null	1.0	1.0	1.0	0	0	97.297	FC_Dinamo_Batumi | manager | Levan_Khomeriki<br>Aleksandre_Guruli | club | FC_Dinamo_Batumi
null	1.0	1.0	1.0	0	0	85.714	Ace_Wilder | recordLabel | Warner_Music_Group<br>Ace_Wilder | background | "solo_singer"
null	1.0	1.0	1.0	0	0	64.286	Alfredo_Zitarrosa | background | "solo_singer"<br>Alfredo_Zitarrosa | genre | Milonga_(music)
null	1.0	1.0	1.0	0	0	78.261	Anders_Osborne | genre | Rhythm_and_blues<br>Anders_Osborne | recordLabel | Rabadash_Records
null	1.0	1.0	1.0	0	0	91.667	101_Helena | discoverer | James_Craig_Watson<br>James_Craig_Watson | deathCause | Peritonitis
null	1.0	1.0	1.0	0	0	97.826	103_Hera | discoverer | James_Craig_Watson<br>James_Craig_Watson | deathCause | Peritonitis
null	1.0	1.0	1.0	0	0	95.238	110_Lydia | epoch | 2006-12-31<br>110_Lydia | orbitalPeriod | 142603000.0
null	1.0	1.0	1.0	0	0	72.973	AIDA_Cruises | location | Rostock<br>AIDAluna | operator | AIDA_Cruises
null	1.0	1.0	1.0	0	0	100	Ariane_5 | manufacturer | Airbus_Defence_and_Space<br>Airbus_Defence_and_Space | parentCompany | Airbus_Group
null	1.0	1.0	1.0	0	0	96.774	Atlas_II | finalFlight | 1998-03-16<br>Atlas_II | diameter | 3.04 m
null	1.0	1.0	1.0	0	0	94.186	Adam_Koc | battles | Polish–Soviet_War<br>Polish–Soviet_War | isPartOfMilitaryConflict | Russian_Civil_War<br>Polish–Soviet_War | commander | Leon_Trotsky
null	1.0	1.0	1.0	0	0	96	Agnes_Kant | office (workedAt, workedAs) | "Member of the House of Representatives"<br>Agnes_Kant | birthPlace | West_Germany<br>Agnes_Kant | almaMater | Radboud_University_Nijmegen
null	1.0	1.0	1.0	0	0	95	Albert_Jennings_Fountain | deathPlace | New_Mexico_Territory<br>Albert_Jennings_Fountain | birthPlace | New_York_City<br>Albert_Jennings_Fountain | birthPlace | Staten_Island
null	1.0	1.0	1.0	0	0	90	107_Camilla | discoverer | N._R._Pogson<br>N._R._Pogson | birthPlace | Nottingham<br>N._R._Pogson | nationality | England
null	1.0	1.0	1.0	0	0	96.429	109_Felicitas | epoch | 2006-12-31<br>109_Felicitas | mass | 7.5 (kilograms)<br>109_Felicitas | orbitalPeriod | 139705000.0
null	1.0	1.0	1.0	0	0	93.976	110_Lydia | epoch | 2006-12-31<br>110_Lydia | mass | 6.7 (kilograms)<br>110_Lydia | periapsis | 377016000000.0
null	1.0	1.0	1.0	0	0	73.913	Aleksandra_Kovač | associatedBand/associatedMusicalArtist | Bebi_Dol<br>Aleksandra_Kovač | associatedBand/associatedMusicalArtist | K2_(Kovač_sisters_duo)<br>Aleksandra_Kovač | genre | Pop_music
null	1.0	1.0	1.0	0	0	85.106	Aleksandra_Kovač | genre | Rhythm_and_blues<br>Aleksandra_Kovač | associatedBand/associatedMusicalArtist | K2_(Kovač_sisters_duo)<br>Aleksandra_Kovač | associatedBand/associatedMusicalArtist | Kristina_Kovač
null	1.0	1.0	1.0	0	0	90	Alex_Day | genre | Synthpop<br>Synthpop | stylisticOrigin | Pop_music<br>Synthpop | stylisticOrigin | Disco
null	1.0	1.0	1.0	0	0	100	Alfa_Romeo_164 | assembly | Italy<br>Italy | capital | Rome<br>Alfa_Romeo_164 | relatedMeanOfTransportation | Fiat_Croma
null	1.0	1.0	1.0	0	0	92	Alfa_Romeo_164 | assembly | Italy<br>Italy | capital | Rome<br>Alfa_Romeo_164 | relatedMeanOfTransportation | Lancia_Thema
null	1.0	1.0	1.0	0	0	81.25	Caterpillar_Inc. | location | Illinois<br>AIDAluna | owner | AIDA_Cruises<br>AIDAluna | powerType | Caterpillar_Inc.
null	1.0	1.0	1.0	0	0	97.183	Aaron_Hunt | club | VfL_Wolfsburg<br>Aaron_Hunt | youthclub | Goslarer_SC_08<br>Aaron_Hunt | club | SV_Werder_Bremen
null	1.0	1.0	1.0	0	0	98.63	Akeem_Ayers | formerTeam | St._Louis_Rams<br>Akeem_Ayers | draftRound | "2"<br>Akeem_Ayers | draftPick | "39"
null	1.0	1.0	1.0	0	0	97.674	Alan_Martin_(footballer) | club | Motherwell_F.C.<br>Alan_Martin_(footballer) | club | Accrington_Stanley_F.C.<br>Accrington_Stanley_F.C. | ground | Accrington
null	1.0	1.0	1.0	0	0	89.744	Al_Kharaitiyat_SC | ground | Al_Khor<br>Alaa_Abdul-Zahra | club | Al-Zawra'a_SC<br>Alaa_Abdul-Zahra | club | Al_Kharaitiyat_SC<br>Al_Kharaitiyat_SC | manager | Amar_Osim
null	1.0	1.0	1.0	0	0	92.727	Alaa_Abdul-Zahra | club | Al_Kharaitiyat_SC<br>Al_Kharaitiyat_SC | ground | Al_Khor<br>Alaa_Abdul-Zahra | club | Shabab_Al-Ordon_Club<br>Al_Kharaitiyat_SC | manager | Amar_Osim
null	1.0	1.0	1.0	0	0	92.593	Aleksandr_Prudnikov | birthDate | 1989-02-24<br>Aleksandr_Prudnikov | height | 185.0 (centimetres)<br>Aleksandr_Prudnikov | club | FC_Kuban_Krasnodar<br>Aleksandr_Prudnikov | club | FC_Dynamo_Moscow
null	1.0	1.0	1.0	0	0	92.857	107_Camilla | discoverer | N._R._Pogson<br>N._R._Pogson | deathPlace | Chennai<br>N._R._Pogson | birthPlace | Nottingham<br>107_Camilla | discovered | 2001-03-01
null	1.0	1.0	1.0	0	0	93.396	1101_Clematis | epoch | 2006-12-31<br>1101_Clematis | formerName | "1928 SJ"<br>1101_Clematis | orbitalPeriod | 183309000.0<br>1101_Clematis | periapsis | 445895000000.0
null	1.0	1.0	1.0	0	0	91.429	1101_Clematis | escapeVelocity | 0.02 (kilometrePerSeconds)<br>1101_Clematis | orbitalPeriod | 183309000.0<br>1101_Clematis | periapsis | 445895000000.0<br>1101_Clematis | epoch | 2006-12-31
null	1.0	1.0	1.0	0	0	90.826	ALCO_RS-3 | builder | American_Locomotive_Company<br>ALCO_RS-3 | length | 17068.8 (millimetres)<br>ALCO_RS-3 | engine | V12_engine<br>ALCO_RS-3 | buildDate | "May 1950 - August 1956"
null	1.0	1.0	1.0	0	0	94.615	Antares_(rocket) | manufacturer | Yuzhnoye_Design_Office<br>Antares_(rocket) | finalFlight | 2014-10-28<br>Antares_(rocket) | maidenFlight | 2013-04-21<br>Antares_(rocket) | launchSite | Mid-Atlantic_Regional_Spaceport_Launch_Pad_0
null	1.0	1.0	1.0	0	0	88	Costa_Crociere | location | Genoa<br>AIDAstella | operator | AIDA_Cruises<br>AIDAstella | builder | Meyer_Werft<br>AIDAstella | owner | Costa_Crociere
null	1.0	1.0	1.0	0	0	94.565	Albennie_Jones | activeYearsEndYear | 1950<br>Albennie_Jones | genre | Rhythm_and_blues<br>Rhythm_and_blues | stylisticOrigin | Blues<br>Rhythm_and_blues | derivative | Disco
null	1.0	1.0	1.0	0	0	70.37	Alex_Day | associatedBand/associatedMusicalArtist | Chameleon_Circuit_(band)<br>Alex_Day | genre | Electronic_music<br>Alex_Day | associatedBand/associatedMusicalArtist | Charlie_McDonnell<br>Alex_Day | activeYearsStartYear | 2006
null	1.0	1.0	1.0	0	0	91.304	Asunción | isPartOf | Gran_Asunción<br>Agustín_Barboza | deathPlace | Asunción<br>Paraguay | leaderName | Juan_Afara<br>Agustín_Barboza | deathPlace | Paraguay
null	1.0	1.0	1.0	0	0	100	Abdul_Taib_Mahmud | successor | Adenan_Satem<br>Adenan_Satem | birthPlace | Japanese_occupation_of_British_Borneo<br>Abdul_Taib_Mahmud | residence | Sarawak<br>Abdul_Taib_Mahmud | party | "Barisan Ra'ayat Jati Sarawak"
null	1.0	1.0	1.0	0	0	87.879	Airey_Neave | battles | Battle_of_France<br>Airey_Neave | birthPlace | "Knightsbridge, London"<br>Airey_Neave | activeYearsStartDate | 1953-06-30<br>Airey_Neave | activeYearsEndDate | 1979-03-30
null	1.0	1.0	1.0	0	0	82.443	Alfred_N._Phillips | party | Democratic_Party_(United_States)<br>Alfred_N._Phillips | successor | Albert_E._Austin<br>Alfred_N._Phillips | birthPlace | Connecticut<br>Alfred_N._Phillips | office (workedAt, workedAs) | "Member of the U.S. House of Representatives from Connecticut's 4th district"
null	1.0	1.0	1.0	0	0	95.364	Antares_(rocket) | manufacturer | Yuzhnoye_Design_Office<br>Antares_(rocket) | finalFlight | 2014-07-13<br>Antares_(rocket) | maidenFlight | 2014-10-28<br>Antares_(rocket) | launchSite | Mid-Atlantic_Regional_Spaceport_Launch_Pad_0<br>Antares_(rocket) | diameter | 3.9 (metres)
null	1.0	1.0	1.0	0	0	88.8	Arianespace | locationCity | Courcouronnes<br>Guiana_Space_Centre | headquarter | French_Guiana<br>ELA-3 | site | Guiana_Space_Centre<br>Ariane_5 | launchSite | ELA-3<br>ELA-3 | operator | Arianespace
null	1.0	1.0	1.0	0	0	100	Caterpillar_Inc. | keyPerson | Douglas_R._Oberhelman<br>Caterpillar_Inc. | foundationPlace | United_States<br>Caterpillar_Inc. | location | Peoria,_Illinois<br>AIDAluna | owner | AIDA_Cruises<br>AIDAluna | powerType | Caterpillar_Inc.
null	1.0	1.0	1.0	0	0	91.011	Alessio_Romagnoli | club | A.C._Milan<br>A.C._Milan | league | Serie_A<br>A.C._Milan | manager | Siniša_Mihajlović<br>Alessio_Romagnoli | position | Defender_(football)<br>Alessio_Romagnoli | club | U.C._Sampdoria
null	1.0	1.0	1.0	0	0	87.023	Central_Español | league | Uruguayan_Segunda_División<br>Abel_Hernández | youthclub | Central_Español<br>U.S._Città_di_Palermo | manager | Giuseppe_Iachini<br>Abel_Hernández | club | Uruguay_national_football_team<br>Abel_Hernández | club | U.S._Città_di_Palermo
null	1.0	1.0	1.0	0	0	98.02	FC_Spartak_Moscow | chairman | Sergey_Rodionov<br>FC_Terek_Grozny | ground | Grozny<br>Aleksandr_Prudnikov | club | FC_Spartak_Moscow<br>Aleksandr_Prudnikov | club | FC_Terek_Grozny<br>FC_Terek_Grozny | manager | Rashid_Rakhimov
null	1.0	1.0	1.0	0	0	87.64	101_Helena | discoverer | James_Craig_Watson<br>James_Craig_Watson | almaMater | University_of_Michigan<br>101_Helena | discovered | 1868-08-15<br>James_Craig_Watson | nationality | Canada<br>James_Craig_Watson | deathPlace | Madison,_Wisconsin
null	1.0	1.0	1.0	0	0	85.294	1036_Ganymed | discoverer | Walter_Baade<br>Walter_Baade | deathPlace | Göttingen<br>Walter_Baade | birthPlace | German_Empire<br>Walter_Baade | almaMater | University_of_Göttingen<br>Walter_Baade | doctoralStudent | Allan_Sandage
null	1.0	1.0	1.0	0	0	94.839	1101_Clematis | epoch | 2006-12-31<br>1101_Clematis | escapeVelocity | 0.02 (kilometrePerSeconds)<br>1101_Clematis | mass | 5.7 (kilograms)<br>1101_Clematis | orbitalPeriod | 183309000.0<br>1101_Clematis | apoapsis | 520906000.0 (kilometres)
null	1.0	1.0	1.0	0	0	97.059	Abdul_Taib_Mahmud | party | Parti_Pesaka_Bumiputera_Bersatu<br>Abdul_Taib_Mahmud | region | Asajaya<br>Abdul_Taib_Mahmud | residence | Kuching<br>Abdul_Taib_Mahmud | birthPlace | Miri,_Malaysia<br>Abdul_Taib_Mahmud | birthDate | 1936-05-21
null	1.0	1.0	1.0	0	0	90.826	Agnes_Kant | nationality | Netherlands<br>Netherlands | leaderName | Mark_Rutte<br>Agnes_Kant | office (workedAt, workedAs) | House_of_Representatives_(Netherlands)<br>House_of_Representatives_(Netherlands) | leaderName | Khadija_Arib<br>Agnes_Kant | residence | Doesburg
null	1.0	1.0	1.0	0	0	92.5	Albert_B._White | spouse | Agnes_Ward_White<br>Albert_B._White | birthPlace | Cleveland<br>Albert_B._White | deathPlace | Parkersburg,_West_Virginia<br>Albert_B._White | successor | William_M._O._Dawson<br>William_M._O._Dawson | birthPlace | Bloomington,_Maryland
null	1.0	1.0	1.0	0	0	82.418	Andrew_White_(musician) | associatedBand/associatedMusicalArtist | Kaiser_Chiefs<br>Andrew_White_(musician) | associatedBand/associatedMusicalArtist | Marry_Banilow<br>Andrew_White_(musician) | recordLabel | B-Unique_Records<br>Andrew_White_(musician) | recordLabel | Polydor_Records<br>Andrew_White_(musician) | activeYearsStartYear | 2003
null	1.0	1.0	1.0	0	0	87.379	Rock_music | musicFusionGenre | Bhangra_(music)<br>Al_Anderson_(NRBQ band) | instrument | Guitar<br>Al_Anderson_(NRBQ band) | genre | Rock_music<br>Rock_music | stylisticOrigin | Country_music<br>Country_music | stylisticOrigin | Blues
null	1.0	1.0	1.0	0	0	83.721	Twilight_(band) | genre | Black_metal<br>Aaron_Turner | associatedBand/associatedMusicalArtist | Twilight_(band)<br>Aaron_Turner | associatedBand/associatedMusicalArtist | Old_Man_Gloom<br>Aaron_Turner | instrument | Electric_guitar<br>Black_metal | musicFusionGenre | Death_metal
